{
"preview": "@preview",
"context":{
		"title":"New User Registration",
		"desc":"Ideo qui sit feugait importunus nunc vulputate. Consectetuer regula illum neo humo diam.",
		"fname":"First Name*",
		"lname":"Last Name*",
		"email":"Email Address*",
		"phone":"Phone Number",
		"address":"Address",
		"country":"Select Country*",
		"license":"Physician License #*",
		"medical":"Select Medical Speciality*",
		"PreferLanguage":"Select Preferred Language *",
		"uname":"Username",
		"password":"Password",
		"cpassword":"Confirm Password",
		"personalInfo":"Personal Information:",
		"loginInfo":"Login Information:",
		"submitBtn":"Submit",
		"fbBtn": "Register with Facebook",
		"twitterBtn": "Register with Twitter",
		"linkdiconBtn" : "Register with LinkedIn"
		
	}
}